<?xml version="1.0"?>
<svg xmlns="http://www.w3.org/2000/svg" xmlns:xlink="http://www.w3.org/1999/xlink" version="1.1" id="Capa_1" x="0px" y="0px" viewBox="0 0 512 512" style="enable-background:new 0 0 512 512;" xml:space="preserve" width="512px" height="512px" class=""><g><g>
	<g>
		<path d="M416,426c-5.52,0-10,4.48-10,10c0,5.52,4.48,10,10,10c5.52,0,10-4.48,10-10C426,430.48,421.52,426,416,426z" data-original="#000000" class="active-path" data-old_color="#000000" fill="#FFFFFF"/>
	</g>
</g><g>
	<g>
		<path d="M446,47.432V30c0-16.542-13.458-30-30-30H96C79.458,0,66,13.458,66,30v17.432C0.773,167.896,0.003,164.319,0,169.989    c0,0.004,0,0.007,0,0.011v20c0,17.333,10.022,33.453,26,42.62V502c0,5.522,4.478,10,10,10h440c5.522,0,10-4.478,10-10V232.62    c15.817-9.159,26-25.469,26-42.62v-20c0-0.004,0-0.007,0-0.011C511.997,164.258,510.591,166.721,446,47.432z M485.088,160h-61.88    L389.875,60h40.213L485.088,160z M346,180h60v10c0,16.542-13.458,30-30,30s-30-13.458-30-30V180z M344.471,160L327.805,60h40.987    l33.333,100H344.471z M86,30c0-5.514,4.486-10,10-10h320c5.514,0,10,4.486,10,10v10c-9.522,0-330.404,0-340,0V30z M326,180v10    c0,16.542-13.458,30-30,30s-30-13.458-30-30v-10H326z M266,160V60h41.529l16.667,100H266z M187.805,160l16.667-100H246v100    H187.805z M246,180v10c0,16.542-13.458,30-30,30s-30-13.458-30-30v-10H246z M109.874,160l33.333-100h40.988l-16.667,100H109.874z     M166,180v10c0,16.542-13.458,30-30,30s-30-13.458-30-30v-10H166z M81.912,60h40.213L88.792,160h-61.88L81.912,60z M20,190v-10h66    v10c0,15.701-15.729,30-33,30c-4.354,0-8.866-0.945-13.066-2.742C28.011,212.187,20,201.232,20,190z M206,492H106v-86h100V492z     M206,386H106v-86h100V386z M466,492H226V290c0-5.522-4.478-10-10-10H96c-5.522,0-10,4.478-10,10v202H46V239.511    c2.318,0.315,4.653,0.489,7,0.489c13.161,0,26.465-5.214,36.498-14.306c2.219-2.01,4.217-4.16,6.01-6.413    C104.602,231.822,119.36,240,136,240c16.339,0,30.87-7.878,40-20.035C185.13,232.122,199.661,240,216,240s30.87-7.878,40-20.035    C265.13,232.122,279.661,240,296,240s30.87-7.878,40-20.035C345.13,232.122,359.661,240,376,240    c16.64,0,31.398-8.178,40.492-20.719c1.793,2.253,3.791,4.402,6.01,6.413C432.535,234.786,445.839,240,459,240    c2.342,0,4.677-0.168,7-0.485V492z M492,190c0,11.548-8.309,22.629-20.674,27.575c-4.044,1.61-8.19,2.425-12.326,2.425    c-17.271,0-33-14.299-33-30v-10h66V190z" data-original="#000000" class="active-path" data-old_color="#000000" fill="#FFFFFF"/>
	</g>
</g><g>
	<g>
		<path d="M436,386h-10v-96c0-5.522-4.478-10-10-10H296c-5.522,0-10,4.478-10,10v96h-10c-5.522,0-10,4.478-10,10    c0,5.522,4.478,10,10,10h160c5.522,0,10-4.478,10-10C446,390.478,441.522,386,436,386z M406,386H306v-86h100V386z" data-original="#000000" class="active-path" data-old_color="#000000" fill="#FFFFFF"/>
	</g>
</g><g>
	<g>
		<path d="M376,426h-80c-5.522,0-10,4.478-10,10c0,5.522,4.478,10,10,10h80c5.522,0,10-4.478,10-10C386,430.478,381.522,426,376,426    z" data-original="#000000" class="active-path" data-old_color="#000000" fill="#FFFFFF"/>
	</g>
</g></g> </svg>
